top_wave.vcd
$date
	Mon May 19 07:16:25 2025
$end
$version
	Icarus Verilog
$end
$timescale
	1ps
$end
$scope module tb_top $end
$var reg 1 ! clk $end
$var reg 1 " rst $end
$var integer 32 # cycle_count [31:0] $end
$scope module uut $end
$var wire 1 ! clk $end
$var wire 1 " rst $end
$var wire 32 $ writedata_mem [31:0] $end
$var wire 32 % writedata_exe [31:0] $end
$var wire 1 & stall_pc $end
$var wire 1 ' stall_decode $end
$var wire 1 ( stall_compare $end
$var wire 32 ) signext_exe [31:0] $end
$var wire 32 * signext_decode [31:0] $end
$var wire 5 + shamt_exe [4:0] $end
$var wire 32 , result_wb [31:0] $end
$var wire 1 - regwrite_wb $end
$var wire 1 . regwrite_mem $end
$var wire 1 / regwrite_exe $end
$var wire 1 0 regwrite_decode $end
$var wire 1 1 regdst_exe $end
$var wire 1 2 regdst_decode $end
$var wire 5 3 regaddr_wb [4:0] $end
$var wire 5 4 regaddr_mem [4:0] $end
$var wire 5 5 regaddr_exe [4:0] $end
$var wire 32 6 readdata_wb [31:0] $end
$var wire 32 7 readdata_mem [31:0] $end
$var wire 1 8 pcsrc_decode $end
$var wire 32 9 pc_jump [31:0] $end
$var wire 32 : pc_fetch [31:0] $end
$var wire 32 ; pc_decode [31:0] $end
$var wire 32 < pc_branch [31:0] $end
$var wire 1 = memwrite_mem $end
$var wire 1 > memwrite_exe $end
$var wire 1 ? memwrite_decode $end
$var wire 1 @ memtoreg_wb $end
$var wire 1 A memtoreg_mem $end
$var wire 1 B memtoreg_exe $end
$var wire 1 C memtoreg_decode $end
$var wire 1 D jump_decode $end
$var wire 32 E instr_fetch [31:0] $end
$var wire 32 F instr_decode [31:0] $end
$var wire 2 G forwardB_exe [1:0] $end
$var wire 1 H forwardB_decode $end
$var wire 2 I forwardA_exe [1:0] $end
$var wire 1 J forwardA_decode $end
$var wire 1 K flush_exe $end
$var wire 1 L flush_decode $end
$var wire 32 M data2_exe [31:0] $end
$var wire 32 N data2_decode [31:0] $end
$var wire 32 O data1_exe [31:0] $end
$var wire 32 P data1_decode [31:0] $end
$var wire 1 Q branch_decode $end
$var wire 1 R alusrc_exe $end
$var wire 1 S alusrc_decode $end
$var wire 32 T aluout_wb [31:0] $end
$var wire 32 U aluout_mem [31:0] $end
$var wire 32 V aluout_exe [31:0] $end
$var wire 4 W alucontrol_exe [3:0] $end
$var wire 4 X alucontrol_decode [3:0] $end
$var wire 5 Y Rt_exe [4:0] $end
$var wire 5 Z Rs_exe [4:0] $end
$var wire 5 [ Rd_exe [4:0] $end
$scope module exe2mem $end
$var wire 1 ! clk $end
$var wire 1 " rst $end
$var wire 32 \ writedata_exe [31:0] $end
$var wire 1 / regwrite_exe $end
$var wire 5 ] regaddr_exe [4:0] $end
$var wire 1 > memwrite_exe $end
$var wire 1 B memtoreg_exe $end
$var wire 32 ^ aluout_exe [31:0] $end
$var reg 32 _ aluout_mem [31:0] $end
$var reg 1 A memtoreg_mem $end
$var reg 1 = memwrite_mem $end
$var reg 5 ` regaddr_mem [4:0] $end
$var reg 1 . regwrite_mem $end
$var reg 32 a writedata_mem [31:0] $end
$upscope $end
$scope module exestage $end
$var wire 32 b aluout_mem [31:0] $end
$var wire 1 ! clk $end
$var wire 1 " rst $end
$var wire 32 c writedata_exe [31:0] $end
$var wire 32 d val2 [31:0] $end
$var wire 32 e val1 [31:0] $end
$var wire 32 f signext_exe [31:0] $end
$var wire 5 g shamt_exe [4:0] $end
$var wire 32 h result_wb [31:0] $end
$var wire 1 / regwrite_exe $end
$var wire 1 1 regdst_exe $end
$var wire 5 i regaddr_exe [4:0] $end
$var wire 1 > memwrite_exe $end
$var wire 1 B memtoreg_exe $end
$var wire 2 j forwardB_exe [1:0] $end
$var wire 2 k forwardA_exe [1:0] $end
$var wire 32 l data2_exe [31:0] $end
$var wire 32 m data1_exe [31:0] $end
$var wire 1 R alusrc_exe $end
$var wire 32 n aluout_exe [31:0] $end
$var wire 4 o alucontrol_exe [3:0] $end
$var wire 5 p Rt_exe [4:0] $end
$var wire 5 q Rs_exe [4:0] $end
$var wire 5 r Rd_exe [4:0] $end
$scope module alu $end
$var wire 32 s val2 [31:0] $end
$var wire 32 t val1 [31:0] $end
$var wire 5 u shamt_exe [4:0] $end
$var wire 4 v alucontrol_exe [3:0] $end
$var reg 32 w aluout_exe [31:0] $end
$upscope $end
$scope module mux_regaddr $end
$var wire 1 1 sel $end
$var wire 5 x out [4:0] $end
$var wire 5 y b [4:0] $end
$var wire 5 z a [4:0] $end
$upscope $end
$scope module mux_val1 $end
$var wire 32 { c [31:0] $end
$var wire 32 | d [31:0] $end
$var wire 2 } sel [1:0] $end
$var wire 32 ~ out [31:0] $end
$var wire 32 !" b [31:0] $end
$var wire 32 "" a [31:0] $end
$upscope $end
$scope module mux_val2 $end
$var wire 1 R sel $end
$var wire 32 #" out [31:0] $end
$var wire 32 $" b [31:0] $end
$var wire 32 %" a [31:0] $end
$upscope $end
$scope module mux_writeData $end
$var wire 32 &" c [31:0] $end
$var wire 32 '" d [31:0] $end
$var wire 2 (" sel [1:0] $end
$var wire 32 )" out [31:0] $end
$var wire 32 *" b [31:0] $end
$var wire 32 +" a [31:0] $end
$upscope $end
$upscope $end
$scope module hazardunit $end
$var wire 5 ," Rs_decode [4:0] $end
$var wire 5 -" Rt_decode [4:0] $end
$var wire 1 K flush_exe $end
$var wire 1 A memtoreg_mem $end
$var wire 5 ." regaddr_exe [4:0] $end
$var wire 5 /" regaddr_mem [4:0] $end
$var wire 1 . regwrite_mem $end
$var wire 1 ( stall_compare $end
$var wire 1 ' stall_decode $end
$var wire 1 & stall_pc $end
$var wire 1 0" tmp $end
$var wire 1 - regwrite_wb $end
$var wire 1 / regwrite_exe $end
$var wire 5 1" regaddr_wb [4:0] $end
$var wire 1 B memtoreg_exe $end
$var wire 1 Q branch_decode $end
$var wire 5 2" Rt_exe [4:0] $end
$var wire 5 3" Rs_exe [4:0] $end
$var reg 1 4" branchstall $end
$var reg 1 J forwardA_decode $end
$var reg 2 5" forwardA_exe [1:0] $end
$var reg 1 H forwardB_decode $end
$var reg 2 6" forwardB_exe [1:0] $end
$var reg 1 7" lwstall $end
$upscope $end
$scope module id2exe $end
$var wire 5 8" Rd_decode [4:0] $end
$var wire 5 9" Rs_decode [4:0] $end
$var wire 5 :" Rt_decode [4:0] $end
$var wire 1 ! clk $end
$var wire 1 K flush_exe $end
$var wire 1 " rst $end
$var wire 5 ;" shamt_decode [4:0] $end
$var wire 32 <" signext_decode [31:0] $end
$var wire 1 0 regwrite_decode $end
$var wire 1 2 regdst_decode $end
$var wire 1 ? memwrite_decode $end
$var wire 1 C memtoreg_decode $end
$var wire 32 =" data2_decode [31:0] $end
$var wire 32 >" data1_decode [31:0] $end
$var wire 1 S alusrc_decode $end
$var wire 4 ?" alucontrol_decode [3:0] $end
$var reg 5 @" Rd_exe [4:0] $end
$var reg 5 A" Rs_exe [4:0] $end
$var reg 5 B" Rt_exe [4:0] $end
$var reg 4 C" alucontrol_exe [3:0] $end
$var reg 1 R alusrc_exe $end
$var reg 32 D" data1_exe [31:0] $end
$var reg 32 E" data2_exe [31:0] $end
$var reg 1 B memtoreg_exe $end
$var reg 1 > memwrite_exe $end
$var reg 1 1 regdst_exe $end
$var reg 1 / regwrite_exe $end
$var reg 5 F" shamt_exe [4:0] $end
$var reg 32 G" signext_exe [31:0] $end
$upscope $end
$scope module idstage $end
$var wire 32 H" aluout_mem [31:0] $end
$var wire 1 ! clk $end
$var wire 1 L flush_decode $end
$var wire 1 J forwardA_decode $end
$var wire 1 H forwardB_decode $end
$var wire 1 8 pcsrc_decode $end
$var wire 1 " rst $end
$var wire 1 ( stall_compare $end
$var wire 32 I" signext_decode [31:0] $end
$var wire 32 J" result_wb [31:0] $end
$var wire 1 - regwrite_wb $end
$var wire 1 0 regwrite_decode $end
$var wire 1 2 regdst_decode $end
$var wire 5 K" regaddr_wb [4:0] $end
$var wire 32 L" pc_jump [31:0] $end
$var wire 32 M" pc_decode [31:0] $end
$var wire 32 N" pc_branch [31:0] $end
$var wire 1 ? memwrite_decode $end
$var wire 1 C memtoreg_decode $end
$var wire 1 D jump_decode $end
$var wire 32 O" instr_decode [31:0] $end
$var wire 32 P" data_in2 [31:0] $end
$var wire 32 Q" data_in1 [31:0] $end
$var wire 32 R" data2_decode [31:0] $end
$var wire 32 S" data1_decode [31:0] $end
$var wire 1 T" branch_taken $end
$var wire 1 Q branch_decode $end
$var wire 2 U" branch_condition [1:0] $end
$var wire 1 S alusrc_decode $end
$var wire 4 V" alucontrol_decode [3:0] $end
$scope module adder_branch $end
$var wire 32 W" b [31:0] $end
$var wire 32 X" sum [31:0] $end
$var wire 32 Y" a [31:0] $end
$upscope $end
$scope module c $end
$var wire 6 Z" funct [5:0] $end
$var wire 6 [" opcode [5:0] $end
$var wire 1 0 regwrite $end
$var wire 1 2 regdst $end
$var wire 1 ? memwrite $end
$var wire 1 C memtoreg $end
$var wire 1 D jump $end
$var wire 32 \" instr [31:0] $end
$var wire 1 Q branch $end
$var wire 1 S alusrc $end
$var reg 4 ]" alucontrol [3:0] $end
$var reg 2 ^" branch_condition [1:0] $end
$var reg 7 _" out_tmp [6:0] $end
$upscope $end
$scope module compare $end
$var wire 2 `" branch_condition [1:0] $end
$var wire 1 ( stall_compare $end
$var wire 32 a" b [31:0] $end
$var wire 32 b" a [31:0] $end
$var reg 1 T" branch_taken $end
$upscope $end
$scope module mux_data1 $end
$var wire 32 c" b [31:0] $end
$var wire 1 J sel $end
$var wire 32 d" out [31:0] $end
$var wire 32 e" a [31:0] $end
$upscope $end
$scope module mux_data2 $end
$var wire 32 f" b [31:0] $end
$var wire 1 H sel $end
$var wire 32 g" out [31:0] $end
$var wire 32 h" a [31:0] $end
$upscope $end
$scope module registerfile $end
$var wire 5 i" address1 [4:0] $end
$var wire 5 j" address2 [4:0] $end
$var wire 1 ! clk $end
$var wire 1 " rst $end
$var wire 1 - regwrite $end
$var wire 32 k" data_wb [31:0] $end
$var wire 32 l" data2 [31:0] $end
$var wire 32 m" data1 [31:0] $end
$var wire 5 n" address_wb [4:0] $end
$scope begin $ivl_for_loop0 $end
$var integer 32 o" i [31:0] $end
$upscope $end
$upscope $end
$upscope $end
$scope module if2id $end
$var wire 1 ! clk $end
$var wire 1 L flush_decode $end
$var wire 1 " rst $end
$var wire 1 ' stall_decode $end
$var wire 32 p" pc_fetch [31:0] $end
$var wire 32 q" instr_fetch [31:0] $end
$var reg 32 r" instr_decode [31:0] $end
$var reg 32 s" pc_decode [31:0] $end
$upscope $end
$scope module ifstage $end
$var wire 1 ! clk $end
$var wire 1 D jump_decode $end
$var wire 32 t" pc_branch [31:0] $end
$var wire 32 u" pc_jump [31:0] $end
$var wire 1 8 pcsrc_decode $end
$var wire 1 " rst $end
$var wire 1 & stall_pc $end
$var wire 32 v" pc_out_0 [31:0] $end
$var wire 32 w" pc_out [31:0] $end
$var wire 32 x" pc_in [31:0] $end
$var wire 32 y" pc_fetch [31:0] $end
$var wire 32 z" instr_fetch [31:0] $end
$scope module adder $end
$var wire 32 {" b [31:0] $end
$var wire 32 |" sum [31:0] $end
$var wire 32 }" a [31:0] $end
$upscope $end
$scope module imem $end
$var wire 32 ~" instr [31:0] $end
$var wire 32 !# pc [31:0] $end
$upscope $end
$scope module pc $end
$var wire 1 ! clk $end
$var wire 1 " rst $end
$var wire 1 & stall_pc $end
$var wire 32 "# pc_in [31:0] $end
$var reg 32 ## pc_out [31:0] $end
$upscope $end
$scope module select_branch $end
$var wire 32 $# a [31:0] $end
$var wire 32 %# b [31:0] $end
$var wire 1 8 sel $end
$var wire 32 &# out [31:0] $end
$upscope $end
$scope module select_jump $end
$var wire 32 '# a [31:0] $end
$var wire 32 (# b [31:0] $end
$var wire 1 D sel $end
$var wire 32 )# out [31:0] $end
$upscope $end
$upscope $end
$scope module mem2wb $end
$var wire 32 *# aluout_mem [31:0] $end
$var wire 1 ! clk $end
$var wire 1 A memtoreg_mem $end
$var wire 5 +# regaddr_mem [4:0] $end
$var wire 1 . regwrite_mem $end
$var wire 1 " rst $end
$var wire 32 ,# readdata_mem [31:0] $end
$var reg 32 -# aluout_wb [31:0] $end
$var reg 1 @ memtoreg_wb $end
$var reg 32 .# readdata_wb [31:0] $end
$var reg 5 /# regaddr_wb [4:0] $end
$var reg 1 - regwrite_wb $end
$upscope $end
$scope module memstage $end
$var wire 32 0# aluout_mem [31:0] $end
$var wire 1 ! clk $end
$var wire 1 = memwrite_mem $end
$var wire 32 1# writedata_mem [31:0] $end
$var wire 32 2# readdata_mem [31:0] $end
$scope module dmem $end
$var wire 32 3# addr [31:0] $end
$var wire 1 ! clk $end
$var wire 1 = memwrite $end
$var wire 32 4# readdata [31:0] $end
$var wire 32 5# writedata [31:0] $end
$upscope $end
$upscope $end
$scope module wbstage $end
$var wire 32 6# aluout_wb [31:0] $end
$var wire 1 @ memtoreg_wb $end
$var wire 32 7# readdata_wb [31:0] $end
$var wire 32 8# result_wb [31:0] $end
$scope module mux_result $end
$var wire 32 9# a [31:0] $end
$var wire 32 :# b [31:0] $end
$var wire 1 @ sel $end
$var wire 32 ;# out [31:0] $end
$upscope $end
$upscope $end
$upscope $end
$upscope $end
$enddefinitions $end
#0
$dumpvars
bx ;#
bx :#
bx 9#
bx 8#
bx 7#
bx 6#
bx 5#
bx 4#
bx 3#
bx 2#
bx 1#
bx 0#
bx /#
bx .#
bx -#
bx ,#
bx +#
bx *#
bx )#
bx00 (#
bx '#
bx &#
bx %#
bx $#
bx ##
bx "#
bx !#
bx ~"
bx }"
bx |"
b100 {"
bx z"
bx y"
bx x"
bx w"
bx v"
bx00 u"
bx t"
bx s"
bx r"
bx q"
bx p"
b100000 o"
bx n"
bx m"
bx l"
bx k"
bx j"
bx i"
bx h"
bx g"
bx f"
bx e"
bx d"
bx c"
bx b"
bx a"
bx `"
bx _"
bx ^"
bx ]"
bx \"
bx ["
bx Z"
bx Y"
bx X"
bx00 W"
bx V"
bx U"
xT"
bx S"
bx R"
bx Q"
bx P"
bx O"
bx N"
bx M"
bx00 L"
bx K"
bx J"
bx I"
bx H"
bx G"
bx F"
bx E"
bx D"
bx C"
bx B"
bx A"
bx @"
bx ?"
bx >"
bx ="
bx <"
bx ;"
bx :"
bx 9"
bx 8"
x7"
bx 6"
bx 5"
x4"
bx 3"
bx 2"
bx 1"
x0"
bx /"
bx ."
bx -"
bx ,"
bx +"
bx *"
bx )"
bx ("
b0 '"
bx &"
bx %"
bx $"
bx #"
bx ""
bx !"
bx ~
bx }
b0 |
bx {
bx z
bx y
bx x
bx w
bx v
bx u
bx t
bx s
bx r
bx q
bx p
bx o
bx n
bx m
bx l
bx k
bx j
bx i
bx h
bx g
bx f
bx e
bx d
bx c
bx b
bx a
bx `
bx _
bx ^
bx ]
bx \
bx [
bx Z
bx Y
bx X
bx W
bx V
bx U
bx T
xS
xR
xQ
bx P
bx O
bx N
bx M
xL
xK
xJ
bx I
xH
bx G
bx F
bx E
xD
xC
xB
xA
x@
x?
x>
x=
bx <
bx ;
bx :
bx00 9
x8
bx 7
bx 6
bx 5
bx 4
bx 3
x2
x1
x0
x/
x.
x-
bx ,
bx +
bx *
bx )
x(
x'
x&
bx %
bx $
b0 #
0"
0!
$end
#5000
b100 x"
b100 "#
b100 )#
b100 v"
b100 &#
b100 '#
b0 P"
b0 a"
b0 g"
b0 Q"
b0 b"
b0 d"
0L
08
b0 V
b0 ^
b0 n
b0 w
b0 <
b0 N"
b0 X"
b0 t"
b0 %#
b0 W"
b0 N
b0 ="
b0 R"
b0 h"
b0 l"
b0 P
b0 >"
b0 S"
b0 e"
b0 m"
0T"
00
0C
0?
0S
02
0D
0Q
b0 d
b0 s
b0 #"
0&
0'
0(
0K
00"
b100000000000100000000000000101 E
b100000000000100000000000000101 q"
b100000000000100000000000000101 z"
b100000000000100000000000000101 ~"
b0 9
b0 L"
b0 u"
b0 (#
b0 *
b0 <"
b0 I"
b0 j"
b0 i"
b0 Z"
b0 ["
b0 -"
b0 ,"
b0 ;"
b0 8"
b0 :"
b0 9"
b0 U"
b0 ^"
b0 `"
b1111 X
b1111 ?"
b1111 V"
b1111 ]"
b0 _"
b0 %
b0 \
b0 c
b0 %"
b0 )"
b0 e
b0 t
b0 ~
b0 5
b0 ]
b0 i
b0 x
b0 ."
07"
0H
0J
04"
b0 G
b0 j
b0 ("
b0 6"
b0 I
b0 k
b0 }
b0 5"
b0 ,
b0 h
b0 !"
b0 *"
b0 J"
b0 k"
b0 8#
b0 ;#
b100 :
b100 p"
b100 y"
b100 |"
b100 $#
b0 w"
b0 }"
b0 !#
b0 ##
b0 ;
b0 M"
b0 Y"
b0 s"
b0 F
b0 O"
b0 \"
b0 r"
b0 +
b0 g
b0 u
b0 F"
b0 )
b0 f
b0 $"
b0 G"
b0 [
b0 r
b0 y
b0 @"
b0 Y
b0 p
b0 z
b0 2"
b0 B"
b0 Z
b0 q
b0 3"
b0 A"
b0 M
b0 l
b0 +"
b0 E"
b0 O
b0 m
b0 ""
b0 D"
b0 W
b0 o
b0 v
b0 C"
01
0R
0>
0B
0/
b0 4
b0 `
b0 /"
b0 +#
b0 U
b0 _
b0 b
b0 {
b0 &"
b0 H"
b0 c"
b0 f"
b0 *#
b0 0#
b0 3#
b0 $
b0 a
b0 1#
b0 5#
0.
0A
0=
b0 3
b0 1"
b0 K"
b0 n"
b0 /#
b0 6
b0 .#
b0 7#
b0 :#
b0 T
b0 -#
b0 6#
b0 9#
0-
0@
1!
#10000
b100000 o"
0!
#15000
1!
#20000
0!
1"
#25000
1S
b1000 x"
b1000 "#
b1000 )#
b10100 W"
10
02
b100000000000110000000000001100 E
b100000000000110000000000001100 q"
b100000000000110000000000001100 z"
b100000000000110000000000001100 ~"
b1000 v"
b1000 &#
b1000 '#
b10000000000000010100 9
b10000000000000010100 L"
b10000000000000010100 u"
b10000000000000010100 (#
b101 *
b101 <"
b101 I"
b10 j"
b101 Z"
b1000 ["
b10 -"
b10 :"
b1001000 _"
b0 X
b0 ?"
b0 V"
b0 ]"
b1000 :
b1000 p"
b1000 y"
b1000 |"
b1000 $#
b100 w"
b100 }"
b100 !#
b100 ##
b11000 <
b11000 N"
b11000 X"
b11000 t"
b11000 %#
b100 ;
b100 M"
b100 Y"
b100 s"
b100000000000100000000000000101 F
b100000000000100000000000000101 O"
b100000000000100000000000000101 \"
b100000000000100000000000000101 r"
b1111 W
b1111 o
b1111 v
b1111 C"
bx 6
bx .#
bx 7#
bx :#
b1 #
1!
#30000
0!
#35000
b110000 W"
b1100 x"
b1100 "#
b1100 )#
b10 5
b10 ]
b10 i
b10 x
b10 ."
b101 V
b101 ^
b101 n
b101 w
b101 d
b101 s
b101 #"
b11000000000000110000 9
b11000000000000110000 L"
b11000000000000110000 u"
b11000000000000110000 (#
b1100 *
b1100 <"
b1100 I"
b11 j"
b1100 Z"
b11 -"
b11 :"
b1001000 _"
b100000000001110000000000000110 E
b100000000001110000000000000110 q"
b100000000001110000000000000110 z"
b100000000001110000000000000110 ~"
b1100 v"
b1100 &#
b1100 '#
b10 #
b101 )
b101 f
b101 $"
b101 G"
b10 Y
b10 p
b10 z
b10 2"
b10 B"
b0 W
b0 o
b0 v
b0 C"
1R
1/
b111000 <
b111000 N"
b111000 X"
b111000 t"
b111000 %#
b1000 ;
b1000 M"
b1000 Y"
b1000 s"
b100000000000110000000000001100 F
b100000000000110000000000001100 O"
b100000000000110000000000001100 \"
b100000000000110000000000001100 r"
b1100 :
b1100 p"
b1100 y"
b1100 |"
b1100 $#
b1000 w"
b1000 }"
b1000 !#
b1000 ##
1!
#40000
0!
#45000
b10000 x"
b10000 "#
b10000 )#
b11000 W"
b1100 V
b1100 ^
b1100 n
b1100 w
b100000000001000000000000000111 E
b100000000001000000000000000111 q"
b100000000001000000000000000111 z"
b100000000001000000000000000111 ~"
b10000 v"
b10000 &#
b10000 '#
b111000000000000011000 9
b111000000000000011000 L"
b111000000000000011000 u"
b111000000000000011000 (#
b110 *
b110 <"
b110 I"
b111 j"
b110 Z"
b111 -"
b111 :"
b1001000 _"
b1100 d
b1100 s
b1100 #"
b11 5
b11 ]
b11 i
b11 x
b11 ."
b10000 :
b10000 p"
b10000 y"
b10000 |"
b10000 $#
b1100 w"
b1100 }"
b1100 !#
b1100 ##
b100100 <
b100100 N"
b100100 X"
b100100 t"
b100100 %#
b1100 ;
b1100 M"
b1100 Y"
b1100 s"
b100000000001110000000000000110 F
b100000000001110000000000000110 O"
b100000000001110000000000000110 \"
b100000000001110000000000000110 r"
b1100 )
b1100 f
b1100 $"
b1100 G"
b11 Y
b11 p
b11 z
b11 2"
b11 B"
b10 4
b10 `
b10 /"
b10 +#
b101 U
b101 _
b101 b
b101 {
b101 &"
b101 H"
b101 c"
b101 f"
b101 *#
b101 0#
b101 3#
1.
b11 #
1!
#50000
0!
#55000
b110 V
b110 ^
b110 n
b110 w
b11100 W"
b10100 x"
b10100 "#
b10100 )#
b101 ,
b101 h
b101 !"
b101 *"
b101 J"
b101 k"
b101 8#
b101 ;#
b110 d
b110 s
b110 #"
b111 5
b111 ]
b111 i
b111 x
b111 ."
b100000000000000011100 9
b100000000000000011100 L"
b100000000000000011100 u"
b100000000000000011100 (#
b111 *
b111 <"
b111 I"
b100 j"
b111 Z"
b100 -"
b100 :"
b1001000 _"
b11000100011000000100010 E
b11000100011000000100010 q"
b11000100011000000100010 z"
b11000100011000000100010 ~"
b10100 v"
b10100 &#
b10100 '#
b100 #
b10 3
b10 1"
b10 K"
b10 n"
b10 /#
b101 T
b101 -#
b101 6#
b101 9#
1-
b11 4
b11 `
b11 /"
b11 +#
b1100 U
b1100 _
b1100 b
b1100 {
b1100 &"
b1100 H"
b1100 c"
b1100 f"
b1100 *#
b1100 0#
b1100 3#
b110 )
b110 f
b110 $"
b110 G"
b111 Y
b111 p
b111 z
b111 2"
b111 B"
b101100 <
b101100 N"
b101100 X"
b101100 t"
b101100 %#
b10000 ;
b10000 M"
b10000 Y"
b10000 s"
b100000000001000000000000000111 F
b100000000001000000000000000111 O"
b100000000001000000000000000111 \"
b100000000001000000000000000111 r"
b10100 :
b10100 p"
b10100 y"
b10100 |"
b10100 $#
b10000 w"
b10000 }"
b10000 !#
b10000 ##
1!
#60000
0!
#65000
b101 P"
b101 a"
b101 g"
12
0S
b11000 x"
b11000 "#
b11000 )#
b1100000010001000 W"
b101 N
b101 ="
b101 R"
b101 h"
b101 l"
b10 X
b10 ?"
b10 V"
b10 ]"
b111 V
b111 ^
b111 n
b111 w
b1110010100011000000 E
b1110010100011000000 q"
b1110010100011000000 z"
b1110010100011000000 ~"
b11000 v"
b11000 &#
b11000 '#
b1100010001100000010001000 9
b1100010001100000010001000 L"
b1100010001100000010001000 u"
b1100010001100000010001000 (#
b11000000100010 *
b11000000100010 <"
b11000000100010 I"
b10 j"
b11 i"
b100010 Z"
b0 ["
b10 -"
b11 ,"
b110 8"
b10 :"
b11 9"
b1000100 _"
b111 d
b111 s
b111 #"
b100 5
b100 ]
b100 i
b100 x
b100 ."
b1100 ,
b1100 h
b1100 !"
b1100 *"
b1100 J"
b1100 k"
b1100 8#
b1100 ;#
b11000 :
b11000 p"
b11000 y"
b11000 |"
b11000 $#
b10100 w"
b10100 }"
b10100 !#
b10100 ##
b1100000010011100 <
b1100000010011100 N"
b1100000010011100 X"
b1100000010011100 t"
b1100000010011100 %#
b10100 ;
b10100 M"
b10100 Y"
b10100 s"
b11000100011000000100010 F
b11000100011000000100010 O"
b11000100011000000100010 \"
b11000100011000000100010 r"
b111 )
b111 f
b111 $"
b111 G"
b100 Y
b100 p
b100 z
b100 2"
b100 B"
b111 4
b111 `
b111 /"
b111 +#
b110 U
b110 _
b110 b
b110 {
b110 &"
b110 H"
b110 c"
b110 f"
b110 *#
b110 0#
b110 3#
b11 3
b11 1"
b11 K"
b11 n"
b11 /#
b1100 T
b1100 -#
b1100 6#
b1100 9#
b101 #
1!
#70000
b1100 Q"
b1100 b"
b1100 d"
b1100 P
b1100 >"
b1100 S"
b1100 e"
b1100 m"
0!
#75000
b0 P"
b0 a"
b0 g"
b0 Q"
b0 b"
b0 d"
b1010001100000000 W"
b0 N
b0 ="
b0 R"
b0 h"
b0 l"
b0 P
b0 >"
b0 S"
b0 e"
b0 m"
b11100 x"
b11100 "#
b11100 )#
b110 ,
b110 h
b110 !"
b110 *"
b110 J"
b110 k"
b110 8#
b110 ;#
b101 %
b101 \
b101 c
b101 %"
b101 )"
b1100 e
b1100 t
b1100 ~
b111 V
b111 ^
b111 n
b111 w
b110 5
b110 ]
b110 i
b110 x
b110 ."
b101 d
b101 s
b101 #"
b111001010001100000000 9
b111001010001100000000 L"
b111001010001100000000 u"
b111001010001100000000 (#
b10100011000000 *
b10100011000000 <"
b10100011000000 I"
b111 j"
b0 i"
b0 Z"
b111 -"
b0 ,"
b11 ;"
b101 8"
b111 :"
b0 9"
b110 X
b110 ?"
b110 V"
b110 ]"
b1000100 _"
b101001000100000000100010 E
b101001000100000000100010 q"
b101001000100000000100010 z"
b101001000100000000100010 ~"
b11100 v"
b11100 &#
b11100 '#
b110 #
b111 3
b111 1"
b111 K"
b111 n"
b111 /#
b110 T
b110 -#
b110 6#
b110 9#
b100 4
b100 `
b100 /"
b100 +#
b111 U
b111 _
b111 b
b111 {
b111 &"
b111 H"
b111 c"
b111 f"
b111 *#
b111 0#
b111 3#
b11000000100010 )
b11000000100010 f
b11000000100010 $"
b11000000100010 G"
b110 [
b110 r
b110 y
b110 @"
b10 Y
b10 p
b10 z
b10 2"
b10 B"
b11 Z
b11 q
b11 3"
b11 A"
b101 M
b101 l
b101 +"
b101 E"
b1100 O
b1100 m
b1100 ""
b1100 D"
b10 W
b10 o
b10 v
b10 C"
11
0R
b1010001100011000 <
b1010001100011000 N"
b1010001100011000 X"
b1010001100011000 t"
b1010001100011000 %#
b11000 ;
b11000 M"
b11000 Y"
b11000 s"
b1110010100011000000 F
b1110010100011000000 O"
b1110010100011000000 \"
b1110010100011000000 r"
b11100 :
b11100 p"
b11100 y"
b11100 |"
b11100 $#
b11000 w"
b11000 }"
b11000 !#
b11000 ##
1!
#80000
b110 P"
b110 a"
b110 g"
b110 N
b110 ="
b110 R"
b110 h"
b110 l"
0!
#85000
b0 P"
b0 a"
b0 g"
b100000 x"
b100000 "#
b100000 )#
b10000000010001000 W"
b0 N
b0 ="
b0 R"
b0 h"
b0 l"
b110 d
b110 s
b110 #"
b10001100010100000100100 E
b10001100010100000100100 q"
b10001100010100000100100 z"
b10001100010100000100100 ~"
b100000 v"
b100000 &#
b100000 '#
b10100100010000000010001000 9
b10100100010000000010001000 L"
b10100100010000000010001000 u"
b10100100010000000010001000 (#
b100000000100010 *
b100000000100010 <"
b100000000100010 I"
b100 j"
b101 i"
b100010 Z"
b100 -"
b101 ,"
b0 ;"
b1000 8"
b100 :"
b101 9"
b10 X
b10 ?"
b10 V"
b10 ]"
b1000100 _"
b101 5
b101 ]
b101 i
b101 x
b101 ."
b110 %
b110 \
b110 c
b110 %"
b110 )"
b0 e
b0 t
b0 ~
b110000 V
b110000 ^
b110000 n
b110000 w
b111 ,
b111 h
b111 !"
b111 *"
b111 J"
b111 k"
b111 8#
b111 ;#
b100000 :
b100000 p"
b100000 y"
b100000 |"
b100000 $#
b11100 w"
b11100 }"
b11100 !#
b11100 ##
b10000000010100100 <
b10000000010100100 N"
b10000000010100100 X"
b10000000010100100 t"
b10000000010100100 %#
b11100 ;
b11100 M"
b11100 Y"
b11100 s"
b101001000100000000100010 F
b101001000100000000100010 O"
b101001000100000000100010 \"
b101001000100000000100010 r"
b11 +
b11 g
b11 u
b11 F"
b10100011000000 )
b10100011000000 f
b10100011000000 $"
b10100011000000 G"
b101 [
b101 r
b101 y
b101 @"
b111 Y
b111 p
b111 z
b111 2"
b111 B"
b0 Z
b0 q
b0 3"
b0 A"
b110 M
b110 l
b110 +"
b110 E"
b0 O
b0 m
b0 ""
b0 D"
b110 W
b110 o
b110 v
b110 C"
b110 4
b110 `
b110 /"
b110 +#
b101 $
b101 a
b101 1#
b101 5#
b100 3
b100 1"
b100 K"
b100 n"
b100 /#
b111 T
b111 -#
b111 6#
b111 9#
b111 #
1!
#90000
b111 P"
b111 a"
b111 g"
b111 N
b111 ="
b111 R"
b111 h"
b111 l"
0!
